sim/work/transcript
# //  Questa Sim-64
# //  Version 10.6b linux_x86_64 May 25 2017
# //
# //  Copyright 1991-2017 Mentor Graphics Corporation
# //  All Rights Reserved.
# //
# //  QuestaSim and its associated documentation contain trade
# //  secrets and commercial or financial information that are the property of
# //  Mentor Graphics Corporation and are privileged, confidential,
# //  and exempt from disclosure under the Freedom of Information Act,
# //  5 U.S.C. Section 552. Furthermore, this information
# //  is prohibited from disclosure under the Trade Secrets Act,
# //  18 U.S.C. Section 1905.
# //
# vsim -debugDB top -do "add wave sim:/top/* ; run -all" 
# Start time: 21:25:01 on Feb 02,2023
# ** Warning: (vsim-4308) Enabling visibility using +acc is recommended with debug flow.
# ** Note: (vsim-3813) Design is being optimized due to module recompilation...
# ** Note: (vsim-8611) Generating debug db.
# ** Warning: (vopt-4308) Enabling visibility using +acc is recommended with debug flow.
# Loading work.top(fast)
# Loading sv_std.std
# Loading work.adder_1d(fast)
# ** Note: (vsim-8900) Creating design debug database vsim.dbg.
# add wave sim:/top/* 
#  run -all
# values of A=0000, B=0000, Cin =0, Sum =0000, Cout=0
# values of A=0000, B=0000, Cin =1, Sum =0001, Cout=0
# values of A=0000, B=0001, Cin =0, Sum =0001, Cout=0
# values of A=0000, B=0001, Cin =1, Sum =0010, Cout=0
# values of A=0000, B=0010, Cin =0, Sum =0010, Cout=0
# values of A=0000, B=0010, Cin =1, Sum =0011, Cout=0
# values of A=0000, B=0011, Cin =0, Sum =0011, Cout=0
# values of A=0000, B=0011, Cin =1, Sum =0100, Cout=0
# values of A=0000, B=0100, Cin =0, Sum =0100, Cout=0
# values of A=0000, B=0100, Cin =1, Sum =0101, Cout=0
# values of A=0000, B=0101, Cin =0, Sum =0101, Cout=0
# values of A=0000, B=0101, Cin =1, Sum =0110, Cout=0
# values of A=0000, B=0110, Cin =0, Sum =0110, Cout=0
# values of A=0000, B=0110, Cin =1, Sum =0111, Cout=0
# values of A=0000, B=0111, Cin =0, Sum =0111, Cout=0
# values of A=0000, B=0111, Cin =1, Sum =1000, Cout=0
# values of A=0000, B=1000, Cin =0, Sum =1000, Cout=0
# values of A=0000, B=1000, Cin =1, Sum =1001, Cout=0
# values of A=0000, B=1001, Cin =0, Sum =1001, Cout=0
# values of A=0000, B=1001, Cin =1, Sum =1010, Cout=0
# values of A=0000, B=1010, Cin =0, Sum =1010, Cout=0
# values of A=0000, B=1010, Cin =1, Sum =1011, Cout=0
# values of A=0000, B=1011, Cin =0, Sum =1011, Cout=0
# values of A=0000, B=1011, Cin =1, Sum =1100, Cout=0
# values of A=0000, B=1100, Cin =0, Sum =1100, Cout=0
# values of A=0000, B=1100, Cin =1, Sum =1101, Cout=0
# values of A=0000, B=1101, Cin =0, Sum =1101, Cout=0
# values of A=0000, B=1101, Cin =1, Sum =1110, Cout=0
# values of A=0000, B=1110, Cin =0, Sum =1110, Cout=0
# values of A=0000, B=1110, Cin =1, Sum =1111, Cout=0
# values of A=0000, B=1111, Cin =0, Sum =1111, Cout=0
# values of A=0000, B=1111, Cin =1, Sum =0000, Cout=1
# values of A=0001, B=0000, Cin =0, Sum =0001, Cout=0
# values of A=0001, B=0000, Cin =1, Sum =0010, Cout=0
# values of A=0001, B=0001, Cin =0, Sum =0010, Cout=0
# values of A=0001, B=0001, Cin =1, Sum =0011, Cout=0
# values of A=0001, B=0010, Cin =0, Sum =0011, Cout=0
# values of A=0001, B=0010, Cin =1, Sum =0100, Cout=0
# values of A=0001, B=0011, Cin =0, Sum =0100, Cout=0
# values of A=0001, B=0011, Cin =1, Sum =0101, Cout=0
# values of A=0001, B=0100, Cin =0, Sum =0101, Cout=0
# values of A=0001, B=0100, Cin =1, Sum =0110, Cout=0
# values of A=0001, B=0101, Cin =0, Sum =0110, Cout=0
# values of A=0001, B=0101, Cin =1, Sum =0111, Cout=0
# values of A=0001, B=0110, Cin =0, Sum =0111, Cout=0
# values of A=0001, B=0110, Cin =1, Sum =1000, Cout=0
# values of A=0001, B=0111, Cin =0, Sum =1000, Cout=0
# values of A=0001, B=0111, Cin =1, Sum =1001, Cout=0
# values of A=0001, B=1000, Cin =0, Sum =1001, Cout=0
# values of A=0001, B=1000, Cin =1, Sum =1010, Cout=0
# values of A=0001, B=1001, Cin =0, Sum =1010, Cout=0
# values of A=0001, B=1001, Cin =1, Sum =1011, Cout=0
# values of A=0001, B=1010, Cin =0, Sum =1011, Cout=0
# values of A=0001, B=1010, Cin =1, Sum =1100, Cout=0
# values of A=0001, B=1011, Cin =0, Sum =1100, Cout=0
# values of A=0001, B=1011, Cin =1, Sum =1101, Cout=0
# values of A=0001, B=1100, Cin =0, Sum =1101, Cout=0
# values of A=0001, B=1100, Cin =1, Sum =1110, Cout=0
# values of A=0001, B=1101, Cin =0, Sum =1110, Cout=0
# values of A=0001, B=1101, Cin =1, Sum =1111, Cout=0
# values of A=0001, B=1110, Cin =0, Sum =1111, Cout=0
# values of A=0001, B=1110, Cin =1, Sum =0000, Cout=1
# values of A=0001, B=1111, Cin =0, Sum =0000, Cout=1
# values of A=0001, B=1111, Cin =1, Sum =0001, Cout=1
# values of A=0010, B=0000, Cin =0, Sum =0010, Cout=0
# values of A=0010, B=0000, Cin =1, Sum =0011, Cout=0
# values of A=0010, B=0001, Cin =0, Sum =0011, Cout=0
# values of A=0010, B=0001, Cin =1, Sum =0100, Cout=0
# values of A=0010, B=0010, Cin =0, Sum =0100, Cout=0
# values of A=0010, B=0010, Cin =1, Sum =0101, Cout=0
# values of A=0010, B=0011, Cin =0, Sum =0101, Cout=0
# values of A=0010, B=0011, Cin =1, Sum =0110, Cout=0
# values of A=0010, B=0100, Cin =0, Sum =0110, Cout=0
# values of A=0010, B=0100, Cin =1, Sum =0111, Cout=0
# values of A=0010, B=0101, Cin =0, Sum =0111, Cout=0
# values of A=0010, B=0101, Cin =1, Sum =1000, Cout=0
# values of A=0010, B=0110, Cin =0, Sum =1000, Cout=0
# values of A=0010, B=0110, Cin =1, Sum =1001, Cout=0
# values of A=0010, B=0111, Cin =0, Sum =1001, Cout=0
# values of A=0010, B=0111, Cin =1, Sum =1010, Cout=0
# values of A=0010, B=1000, Cin =0, Sum =1010, Cout=0
# values of A=0010, B=1000, Cin =1, Sum =1011, Cout=0
# values of A=0010, B=1001, Cin =0, Sum =1011, Cout=0
# values of A=0010, B=1001, Cin =1, Sum =1100, Cout=0
# values of A=0010, B=1010, Cin =0, Sum =1100, Cout=0
# values of A=0010, B=1010, Cin =1, Sum =1101, Cout=0
# values of A=0010, B=1011, Cin =0, Sum =1101, Cout=0
# values of A=0010, B=1011, Cin =1, Sum =1110, Cout=0
# values of A=0010, B=1100, Cin =0, Sum =1110, Cout=0
# values of A=0010, B=1100, Cin =1, Sum =1111, Cout=0
# values of A=0010, B=1101, Cin =0, Sum =1111, Cout=0
# values of A=0010, B=1101, Cin =1, Sum =0000, Cout=1
# values of A=0010, B=1110, Cin =0, Sum =0000, Cout=1
# values of A=0010, B=1110, Cin =1, Sum =0001, Cout=1
# values of A=0010, B=1111, Cin =0, Sum =0001, Cout=1
# values of A=0010, B=1111, Cin =1, Sum =0010, Cout=1
# values of A=0011, B=0000, Cin =0, Sum =0011, Cout=0
# values of A=0011, B=0000, Cin =1, Sum =0100, Cout=0
# values of A=0011, B=0001, Cin =0, Sum =0100, Cout=0
# values of A=0011, B=0001, Cin =1, Sum =0101, Cout=0
# values of A=0011, B=0010, Cin =0, Sum =0101, Cout=0
# values of A=0011, B=0010, Cin =1, Sum =0110, Cout=0
# values of A=0011, B=0011, Cin =0, Sum =0110, Cout=0
# values of A=0011, B=0011, Cin =1, Sum =0111, Cout=0
# values of A=0011, B=0100, Cin =0, Sum =0111, Cout=0
# values of A=0011, B=0100, Cin =1, Sum =1000, Cout=0
# values of A=0011, B=0101, Cin =0, Sum =1000, Cout=0
# values of A=0011, B=0101, Cin =1, Sum =1001, Cout=0
# values of A=0011, B=0110, Cin =0, Sum =1001, Cout=0
# values of A=0011, B=0110, Cin =1, Sum =1010, Cout=0
# values of A=0011, B=0111, Cin =0, Sum =1010, Cout=0
# values of A=0011, B=0111, Cin =1, Sum =1011, Cout=0
# values of A=0011, B=1000, Cin =0, Sum =1011, Cout=0
# values of A=0011, B=1000, Cin =1, Sum =1100, Cout=0
# values of A=0011, B=1001, Cin =0, Sum =1100, Cout=0
# values of A=0011, B=1001, Cin =1, Sum =1101, Cout=0
# values of A=0011, B=1010, Cin =0, Sum =1101, Cout=0
# values of A=0011, B=1010, Cin =1, Sum =1110, Cout=0
# values of A=0011, B=1011, Cin =0, Sum =1110, Cout=0
# values of A=0011, B=1011, Cin =1, Sum =1111, Cout=0
# values of A=0011, B=1100, Cin =0, Sum =1111, Cout=0
# values of A=0011, B=1100, Cin =1, Sum =0000, Cout=1
# values of A=0011, B=1101, Cin =0, Sum =0000, Cout=1
# values of A=0011, B=1101, Cin =1, Sum =0001, Cout=1
# values of A=0011, B=1110, Cin =0, Sum =0001, Cout=1
# values of A=0011, B=1110, Cin =1, Sum =0010, Cout=1
# values of A=0011, B=1111, Cin =0, Sum =0010, Cout=1
# values of A=0011, B=1111, Cin =1, Sum =0011, Cout=1
# values of A=0100, B=0000, Cin =0, Sum =0100, Cout=0
# values of A=0100, B=0000, Cin =1, Sum =0101, Cout=0
# values of A=0100, B=0001, Cin =0, Sum =0101, Cout=0
# values of A=0100, B=0001, Cin =1, Sum =0110, Cout=0
# values of A=0100, B=0010, Cin =0, Sum =0110, Cout=0
# values of A=0100, B=0010, Cin =1, Sum =0111, Cout=0
# values of A=0100, B=0011, Cin =0, Sum =0111, Cout=0
# values of A=0100, B=0011, Cin =1, Sum =1000, Cout=0
# values of A=0100, B=0100, Cin =0, Sum =1000, Cout=0
# values of A=0100, B=0100, Cin =1, Sum =1001, Cout=0
# values of A=0100, B=0101, Cin =0, Sum =1001, Cout=0
# values of A=0100, B=0101, Cin =1, Sum =1010, Cout=0
# values of A=0100, B=0110, Cin =0, Sum =1010, Cout=0
# values of A=0100, B=0110, Cin =1, Sum =1011, Cout=0
# values of A=0100, B=0111, Cin =0, Sum =1011, Cout=0
# values of A=0100, B=0111, Cin =1, Sum =1100, Cout=0
# values of A=0100, B=1000, Cin =0, Sum =1100, Cout=0
# values of A=0100, B=1000, Cin =1, Sum =1101, Cout=0
# values of A=0100, B=1001, Cin =0, Sum =1101, Cout=0
# values of A=0100, B=1001, Cin =1, Sum =1110, Cout=0
# values of A=0100, B=1010, Cin =0, Sum =1110, Cout=0
# values of A=0100, B=1010, Cin =1, Sum =1111, Cout=0
# values of A=0100, B=1011, Cin =0, Sum =1111, Cout=0
# values of A=0100, B=1011, Cin =1, Sum =0000, Cout=1
# values of A=0100, B=1100, Cin =0, Sum =0000, Cout=1
# values of A=0100, B=1100, Cin =1, Sum =0001, Cout=1
# values of A=0100, B=1101, Cin =0, Sum =0001, Cout=1
# values of A=0100, B=1101, Cin =1, Sum =0010, Cout=1
# values of A=0100, B=1110, Cin =0, Sum =0010, Cout=1
# values of A=0100, B=1110, Cin =1, Sum =0011, Cout=1
# values of A=0100, B=1111, Cin =0, Sum =0011, Cout=1
# values of A=0100, B=1111, Cin =1, Sum =0100, Cout=1
# values of A=0101, B=0000, Cin =0, Sum =0101, Cout=0
# values of A=0101, B=0000, Cin =1, Sum =0110, Cout=0
# values of A=0101, B=0001, Cin =0, Sum =0110, Cout=0
# values of A=0101, B=0001, Cin =1, Sum =0111, Cout=0
# values of A=0101, B=0010, Cin =0, Sum =0111, Cout=0
# values of A=0101, B=0010, Cin =1, Sum =1000, Cout=0
# values of A=0101, B=0011, Cin =0, Sum =1000, Cout=0
# values of A=0101, B=0011, Cin =1, Sum =1001, Cout=0
# values of A=0101, B=0100, Cin =0, Sum =1001, Cout=0
# values of A=0101, B=0100, Cin =1, Sum =1010, Cout=0
# values of A=0101, B=0101, Cin =0, Sum =1010, Cout=0
# values of A=0101, B=0101, Cin =1, Sum =1011, Cout=0
# values of A=0101, B=0110, Cin =0, Sum =1011, Cout=0
# values of A=0101, B=0110, Cin =1, Sum =1100, Cout=0
# values of A=0101, B=0111, Cin =0, Sum =1100, Cout=0
# values of A=0101, B=0111, Cin =1, Sum =1101, Cout=0
# values of A=0101, B=1000, Cin =0, Sum =1101, Cout=0
# values of A=0101, B=1000, Cin =1, Sum =1110, Cout=0
# values of A=0101, B=1001, Cin =0, Sum =1110, Cout=0
# values of A=0101, B=1001, Cin =1, Sum =1111, Cout=0
# values of A=0101, B=1010, Cin =0, Sum =1111, Cout=0
# values of A=0101, B=1010, Cin =1, Sum =0000, Cout=1
# values of A=0101, B=1011, Cin =0, Sum =0000, Cout=1
# values of A=0101, B=1011, Cin =1, Sum =0001, Cout=1
# values of A=0101, B=1100, Cin =0, Sum =0001, Cout=1
# values of A=0101, B=1100, Cin =1, Sum =0010, Cout=1
# values of A=0101, B=1101, Cin =0, Sum =0010, Cout=1
# values of A=0101, B=1101, Cin =1, Sum =0011, Cout=1
# values of A=0101, B=1110, Cin =0, Sum =0011, Cout=1
# values of A=0101, B=1110, Cin =1, Sum =0100, Cout=1
# values of A=0101, B=1111, Cin =0, Sum =0100, Cout=1
# values of A=0101, B=1111, Cin =1, Sum =0101, Cout=1
# values of A=0110, B=0000, Cin =0, Sum =0110, Cout=0
# values of A=0110, B=0000, Cin =1, Sum =0111, Cout=0
# values of A=0110, B=0001, Cin =0, Sum =0111, Cout=0
# values of A=0110, B=0001, Cin =1, Sum =1000, Cout=0
# values of A=0110, B=0010, Cin =0, Sum =1000, Cout=0
# values of A=0110, B=0010, Cin =1, Sum =1001, Cout=0
# values of A=0110, B=0011, Cin =0, Sum =1001, Cout=0
# values of A=0110, B=0011, Cin =1, Sum =1010, Cout=0
# values of A=0110, B=0100, Cin =0, Sum =1010, Cout=0
# values of A=0110, B=0100, Cin =1, Sum =1011, Cout=0
# values of A=0110, B=0101, Cin =0, Sum =1011, Cout=0
# values of A=0110, B=0101, Cin =1, Sum =1100, Cout=0
# values of A=0110, B=0110, Cin =0, Sum =1100, Cout=0
# values of A=0110, B=0110, Cin =1, Sum =1101, Cout=0
# values of A=0110, B=0111, Cin =0, Sum =1101, Cout=0
# values of A=0110, B=0111, Cin =1, Sum =1110, Cout=0
# values of A=0110, B=1000, Cin =0, Sum =1110, Cout=0
# values of A=0110, B=1000, Cin =1, Sum =1111, Cout=0
# values of A=0110, B=1001, Cin =0, Sum =1111, Cout=0
# values of A=0110, B=1001, Cin =1, Sum =0000, Cout=1
# values of A=0110, B=1010, Cin =0, Sum =0000, Cout=1
# values of A=0110, B=1010, Cin =1, Sum =0001, Cout=1
# values of A=0110, B=1011, Cin =0, Sum =0001, Cout=1
# values of A=0110, B=1011, Cin =1, Sum =0010, Cout=1
# values of A=0110, B=1100, Cin =0, Sum =0010, Cout=1
# values of A=0110, B=1100, Cin =1, Sum =0011, Cout=1
# values of A=0110, B=1101, Cin =0, Sum =0011, Cout=1
# values of A=0110, B=1101, Cin =1, Sum =0100, Cout=1
# values of A=0110, B=1110, Cin =0, Sum =0100, Cout=1
# values of A=0110, B=1110, Cin =1, Sum =0101, Cout=1
# values of A=0110, B=1111, Cin =0, Sum =0101, Cout=1
# values of A=0110, B=1111, Cin =1, Sum =0110, Cout=1
# values of A=0111, B=0000, Cin =0, Sum =0111, Cout=0
# values of A=0111, B=0000, Cin =1, Sum =1000, Cout=0
# values of A=0111, B=0001, Cin =0, Sum =1000, Cout=0
# values of A=0111, B=0001, Cin =1, Sum =1001, Cout=0
# values of A=0111, B=0010, Cin =0, Sum =1001, Cout=0
# values of A=0111, B=0010, Cin =1, Sum =1010, Cout=0
# values of A=0111, B=0011, Cin =0, Sum =1010, Cout=0
# values of A=0111, B=0011, Cin =1, Sum =1011, Cout=0
# values of A=0111, B=0100, Cin =0, Sum =1011, Cout=0
# values of A=0111, B=0100, Cin =1, Sum =1100, Cout=0
# values of A=0111, B=0101, Cin =0, Sum =1100, Cout=0
# values of A=0111, B=0101, Cin =1, Sum =1101, Cout=0
# values of A=0111, B=0110, Cin =0, Sum =1101, Cout=0
# values of A=0111, B=0110, Cin =1, Sum =1110, Cout=0
# values of A=0111, B=0111, Cin =0, Sum =1110, Cout=0
# values of A=0111, B=0111, Cin =1, Sum =1111, Cout=0
# values of A=0111, B=1000, Cin =0, Sum =1111, Cout=0
# values of A=0111, B=1000, Cin =1, Sum =0000, Cout=1
# values of A=0111, B=1001, Cin =0, Sum =0000, Cout=1
# values of A=0111, B=1001, Cin =1, Sum =0001, Cout=1
# values of A=0111, B=1010, Cin =0, Sum =0001, Cout=1
# values of A=0111, B=1010, Cin =1, Sum =0010, Cout=1
# values of A=0111, B=1011, Cin =0, Sum =0010, Cout=1
# values of A=0111, B=1011, Cin =1, Sum =0011, Cout=1
# values of A=0111, B=1100, Cin =0, Sum =0011, Cout=1
# values of A=0111, B=1100, Cin =1, Sum =0100, Cout=1
# values of A=0111, B=1101, Cin =0, Sum =0100, Cout=1
# values of A=0111, B=1101, Cin =1, Sum =0101, Cout=1
# values of A=0111, B=1110, Cin =0, Sum =0101, Cout=1
# values of A=0111, B=1110, Cin =1, Sum =0110, Cout=1
# values of A=0111, B=1111, Cin =0, Sum =0110, Cout=1
# values of A=0111, B=1111, Cin =1, Sum =0111, Cout=1
# values of A=1000, B=0000, Cin =0, Sum =1000, Cout=0
# values of A=1000, B=0000, Cin =1, Sum =1001, Cout=0
# values of A=1000, B=0001, Cin =0, Sum =1001, Cout=0
# values of A=1000, B=0001, Cin =1, Sum =1010, Cout=0
# values of A=1000, B=0010, Cin =0, Sum =1010, Cout=0
# values of A=1000, B=0010, Cin =1, Sum =1011, Cout=0
# values of A=1000, B=0011, Cin =0, Sum =1011, Cout=0
# values of A=1000, B=0011, Cin =1, Sum =1100, Cout=0
# values of A=1000, B=0100, Cin =0, Sum =1100, Cout=0
# values of A=1000, B=0100, Cin =1, Sum =1101, Cout=0
# values of A=1000, B=0101, Cin =0, Sum =1101, Cout=0
# values of A=1000, B=0101, Cin =1, Sum =1110, Cout=0
# values of A=1000, B=0110, Cin =0, Sum =1110, Cout=0
# values of A=1000, B=0110, Cin =1, Sum =1111, Cout=0
# values of A=1000, B=0111, Cin =0, Sum =1111, Cout=0
# values of A=1000, B=0111, Cin =1, Sum =0000, Cout=1
# values of A=1000, B=1000, Cin =0, Sum =0000, Cout=1
# values of A=1000, B=1000, Cin =1, Sum =0001, Cout=1
# values of A=1000, B=1001, Cin =0, Sum =0001, Cout=1
# values of A=1000, B=1001, Cin =1, Sum =0010, Cout=1
# values of A=1000, B=1010, Cin =0, Sum =0010, Cout=1
# values of A=1000, B=1010, Cin =1, Sum =0011, Cout=1
# values of A=1000, B=1011, Cin =0, Sum =0011, Cout=1
# values of A=1000, B=1011, Cin =1, Sum =0100, Cout=1
# values of A=1000, B=1100, Cin =0, Sum =0100, Cout=1
# values of A=1000, B=1100, Cin =1, Sum =0101, Cout=1
# values of A=1000, B=1101, Cin =0, Sum =0101, Cout=1
# values of A=1000, B=1101, Cin =1, Sum =0110, Cout=1
# values of A=1000, B=1110, Cin =0, Sum =0110, Cout=1
# values of A=1000, B=1110, Cin =1, Sum =0111, Cout=1
# values of A=1000, B=1111, Cin =0, Sum =0111, Cout=1
# values of A=1000, B=1111, Cin =1, Sum =1000, Cout=1
# values of A=1001, B=0000, Cin =0, Sum =1001, Cout=0
# values of A=1001, B=0000, Cin =1, Sum =1010, Cout=0
# values of A=1001, B=0001, Cin =0, Sum =1010, Cout=0
# values of A=1001, B=0001, Cin =1, Sum =1011, Cout=0
# values of A=1001, B=0010, Cin =0, Sum =1011, Cout=0
# values of A=1001, B=0010, Cin =1, Sum =1100, Cout=0
# values of A=1001, B=0011, Cin =0, Sum =1100, Cout=0
# values of A=1001, B=0011, Cin =1, Sum =1101, Cout=0
# values of A=1001, B=0100, Cin =0, Sum =1101, Cout=0
# values of A=1001, B=0100, Cin =1, Sum =1110, Cout=0
# values of A=1001, B=0101, Cin =0, Sum =1110, Cout=0
# values of A=1001, B=0101, Cin =1, Sum =1111, Cout=0
# values of A=1001, B=0110, Cin =0, Sum =1111, Cout=0
# values of A=1001, B=0110, Cin =1, Sum =0000, Cout=1
# values of A=1001, B=0111, Cin =0, Sum =0000, Cout=1
# values of A=1001, B=0111, Cin =1, Sum =0001, Cout=1
# values of A=1001, B=1000, Cin =0, Sum =0001, Cout=1
# values of A=1001, B=1000, Cin =1, Sum =0010, Cout=1
# values of A=1001, B=1001, Cin =0, Sum =0010, Cout=1
# values of A=1001, B=1001, Cin =1, Sum =0011, Cout=1
# values of A=1001, B=1010, Cin =0, Sum =0011, Cout=1
# values of A=1001, B=1010, Cin =1, Sum =0100, Cout=1
# values of A=1001, B=1011, Cin =0, Sum =0100, Cout=1
# values of A=1001, B=1011, Cin =1, Sum =0101, Cout=1
# values of A=1001, B=1100, Cin =0, Sum =0101, Cout=1
# values of A=1001, B=1100, Cin =1, Sum =0110, Cout=1
# values of A=1001, B=1101, Cin =0, Sum =0110, Cout=1
# values of A=1001, B=1101, Cin =1, Sum =0111, Cout=1
# values of A=1001, B=1110, Cin =0, Sum =0111, Cout=1
# values of A=1001, B=1110, Cin =1, Sum =1000, Cout=1
# values of A=1001, B=1111, Cin =0, Sum =1000, Cout=1
# values of A=1001, B=1111, Cin =1, Sum =1001, Cout=1
# values of A=1010, B=0000, Cin =0, Sum =1010, Cout=0
# values of A=1010, B=0000, Cin =1, Sum =1011, Cout=0
# values of A=1010, B=0001, Cin =0, Sum =1011, Cout=0
# values of A=1010, B=0001, Cin =1, Sum =1100, Cout=0
# values of A=1010, B=0010, Cin =0, Sum =1100, Cout=0
# values of A=1010, B=0010, Cin =1, Sum =1101, Cout=0
# values of A=1010, B=0011, Cin =0, Sum =1101, Cout=0
# values of A=1010, B=0011, Cin =1, Sum =1110, Cout=0
# values of A=1010, B=0100, Cin =0, Sum =1110, Cout=0
# values of A=1010, B=0100, Cin =1, Sum =1111, Cout=0
# values of A=1010, B=0101, Cin =0, Sum =1111, Cout=0
# values of A=1010, B=0101, Cin =1, Sum =0000, Cout=1
# values of A=1010, B=0110, Cin =0, Sum =0000, Cout=1
# values of A=1010, B=0110, Cin =1, Sum =0001, Cout=1
# values of A=1010, B=0111, Cin =0, Sum =0001, Cout=1
# values of A=1010, B=0111, Cin =1, Sum =0010, Cout=1
# values of A=1010, B=1000, Cin =0, Sum =0010, Cout=1
# values of A=1010, B=1000, Cin =1, Sum =0011, Cout=1
# values of A=1010, B=1001, Cin =0, Sum =0011, Cout=1
# values of A=1010, B=1001, Cin =1, Sum =0100, Cout=1
# values of A=1010, B=1010, Cin =0, Sum =0100, Cout=1
# values of A=1010, B=1010, Cin =1, Sum =0101, Cout=1
# values of A=1010, B=1011, Cin =0, Sum =0101, Cout=1
# values of A=1010, B=1011, Cin =1, Sum =0110, Cout=1
# values of A=1010, B=1100, Cin =0, Sum =0110, Cout=1
# values of A=1010, B=1100, Cin =1, Sum =0111, Cout=1
# values of A=1010, B=1101, Cin =0, Sum =0111, Cout=1
# values of A=1010, B=1101, Cin =1, Sum =1000, Cout=1
# values of A=1010, B=1110, Cin =0, Sum =1000, Cout=1
# values of A=1010, B=1110, Cin =1, Sum =1001, Cout=1
# values of A=1010, B=1111, Cin =0, Sum =1001, Cout=1
# values of A=1010, B=1111, Cin =1, Sum =1010, Cout=1
# values of A=1011, B=0000, Cin =0, Sum =1011, Cout=0
# values of A=1011, B=0000, Cin =1, Sum =1100, Cout=0
# values of A=1011, B=0001, Cin =0, Sum =1100, Cout=0
# values of A=1011, B=0001, Cin =1, Sum =1101, Cout=0
# values of A=1011, B=0010, Cin =0, Sum =1101, Cout=0
# values of A=1011, B=0010, Cin =1, Sum =1110, Cout=0
# values of A=1011, B=0011, Cin =0, Sum =1110, Cout=0
# values of A=1011, B=0011, Cin =1, Sum =1111, Cout=0
# values of A=1011, B=0100, Cin =0, Sum =1111, Cout=0
# values of A=1011, B=0100, Cin =1, Sum =0000, Cout=1
# values of A=1011, B=0101, Cin =0, Sum =0000, Cout=1
# values of A=1011, B=0101, Cin =1, Sum =0001, Cout=1
# values of A=1011, B=0110, Cin =0, Sum =0001, Cout=1
# values of A=1011, B=0110, Cin =1, Sum =0010, Cout=1
# values of A=1011, B=0111, Cin =0, Sum =0010, Cout=1
# values of A=1011, B=0111, Cin =1, Sum =0011, Cout=1
# values of A=1011, B=1000, Cin =0, Sum =0011, Cout=1
# values of A=1011, B=1000, Cin =1, Sum =0100, Cout=1
# values of A=1011, B=1001, Cin =0, Sum =0100, Cout=1
# values of A=1011, B=1001, Cin =1, Sum =0101, Cout=1
# values of A=1011, B=1010, Cin =0, Sum =0101, Cout=1
# values of A=1011, B=1010, Cin =1, Sum =0110, Cout=1
# values of A=1011, B=1011, Cin =0, Sum =0110, Cout=1
# values of A=1011, B=1011, Cin =1, Sum =0111, Cout=1
# values of A=1011, B=1100, Cin =0, Sum =0111, Cout=1
# values of A=1011, B=1100, Cin =1, Sum =1000, Cout=1
# values of A=1011, B=1101, Cin =0, Sum =1000, Cout=1
# values of A=1011, B=1101, Cin =1, Sum =1001, Cout=1
# values of A=1011, B=1110, Cin =0, Sum =1001, Cout=1
# values of A=1011, B=1110, Cin =1, Sum =1010, Cout=1
# values of A=1011, B=1111, Cin =0, Sum =1010, Cout=1
# values of A=1011, B=1111, Cin =1, Sum =1011, Cout=1
# values of A=1100, B=0000, Cin =0, Sum =1100, Cout=0
# values of A=1100, B=0000, Cin =1, Sum =1101, Cout=0
# values of A=1100, B=0001, Cin =0, Sum =1101, Cout=0
# values of A=1100, B=0001, Cin =1, Sum =1110, Cout=0
# values of A=1100, B=0010, Cin =0, Sum =1110, Cout=0
# values of A=1100, B=0010, Cin =1, Sum =1111, Cout=0
# values of A=1100, B=0011, Cin =0, Sum =1111, Cout=0
# values of A=1100, B=0011, Cin =1, Sum =0000, Cout=1
# values of A=1100, B=0100, Cin =0, Sum =0000, Cout=1
# values of A=1100, B=0100, Cin =1, Sum =0001, Cout=1
# values of A=1100, B=0101, Cin =0, Sum =0001, Cout=1
# values of A=1100, B=0101, Cin =1, Sum =0010, Cout=1
# values of A=1100, B=0110, Cin =0, Sum =0010, Cout=1
# values of A=1100, B=0110, Cin =1, Sum =0011, Cout=1
# values of A=1100, B=0111, Cin =0, Sum =0011, Cout=1
# values of A=1100, B=0111, Cin =1, Sum =0100, Cout=1
# values of A=1100, B=1000, Cin =0, Sum =0100, Cout=1
# values of A=1100, B=1000, Cin =1, Sum =0101, Cout=1
# values of A=1100, B=1001, Cin =0, Sum =0101, Cout=1
# values of A=1100, B=1001, Cin =1, Sum =0110, Cout=1
# values of A=1100, B=1010, Cin =0, Sum =0110, Cout=1
# values of A=1100, B=1010, Cin =1, Sum =0111, Cout=1
# values of A=1100, B=1011, Cin =0, Sum =0111, Cout=1
# values of A=1100, B=1011, Cin =1, Sum =1000, Cout=1
# values of A=1100, B=1100, Cin =0, Sum =1000, Cout=1
# values of A=1100, B=1100, Cin =1, Sum =1001, Cout=1
# values of A=1100, B=1101, Cin =0, Sum =1001, Cout=1
# values of A=1100, B=1101, Cin =1, Sum =1010, Cout=1
# values of A=1100, B=1110, Cin =0, Sum =1010, Cout=1
# values of A=1100, B=1110, Cin =1, Sum =1011, Cout=1
# values of A=1100, B=1111, Cin =0, Sum =1011, Cout=1
# values of A=1100, B=1111, Cin =1, Sum =1100, Cout=1
# values of A=1101, B=0000, Cin =0, Sum =1101, Cout=0
# values of A=1101, B=0000, Cin =1, Sum =1110, Cout=0
# values of A=1101, B=0001, Cin =0, Sum =1110, Cout=0
# values of A=1101, B=0001, Cin =1, Sum =1111, Cout=0
# values of A=1101, B=0010, Cin =0, Sum =1111, Cout=0
# values of A=1101, B=0010, Cin =1, Sum =0000, Cout=1
# values of A=1101, B=0011, Cin =0, Sum =0000, Cout=1
# values of A=1101, B=0011, Cin =1, Sum =0001, Cout=1
# values of A=1101, B=0100, Cin =0, Sum =0001, Cout=1
# values of A=1101, B=0100, Cin =1, Sum =0010, Cout=1
# values of A=1101, B=0101, Cin =0, Sum =0010, Cout=1
# values of A=1101, B=0101, Cin =1, Sum =0011, Cout=1
# values of A=1101, B=0110, Cin =0, Sum =0011, Cout=1
# values of A=1101, B=0110, Cin =1, Sum =0100, Cout=1
# values of A=1101, B=0111, Cin =0, Sum =0100, Cout=1
# values of A=1101, B=0111, Cin =1, Sum =0101, Cout=1
# values of A=1101, B=1000, Cin =0, Sum =0101, Cout=1
# values of A=1101, B=1000, Cin =1, Sum =0110, Cout=1
# values of A=1101, B=1001, Cin =0, Sum =0110, Cout=1
# values of A=1101, B=1001, Cin =1, Sum =0111, Cout=1
# values of A=1101, B=1010, Cin =0, Sum =0111, Cout=1
# values of A=1101, B=1010, Cin =1, Sum =1000, Cout=1
# values of A=1101, B=1011, Cin =0, Sum =1000, Cout=1
# values of A=1101, B=1011, Cin =1, Sum =1001, Cout=1
# values of A=1101, B=1100, Cin =0, Sum =1001, Cout=1
# values of A=1101, B=1100, Cin =1, Sum =1010, Cout=1
# values of A=1101, B=1101, Cin =0, Sum =1010, Cout=1
# values of A=1101, B=1101, Cin =1, Sum =1011, Cout=1
# values of A=1101, B=1110, Cin =0, Sum =1011, Cout=1
# values of A=1101, B=1110, Cin =1, Sum =1100, Cout=1
# values of A=1101, B=1111, Cin =0, Sum =1100, Cout=1
# values of A=1101, B=1111, Cin =1, Sum =1101, Cout=1
# values of A=1110, B=0000, Cin =0, Sum =1110, Cout=0
# values of A=1110, B=0000, Cin =1, Sum =1111, Cout=0
# values of A=1110, B=0001, Cin =0, Sum =1111, Cout=0
# values of A=1110, B=0001, Cin =1, Sum =0000, Cout=1
